80 -176 -32 -24 56 -24 64 -40 432
-8 64 -384 -216 208 -24 40
-40 -16 8 -16 -40 264 -8 -8 224 -272 16
-8 -8 -8 -8 -8 -8 -8 8 -32 -264 168 -152 -32 144 -24
-608 -208 160
-40 -32 -40 -24 -232 -40 24 -48 -176 -56 200
-32 -16 -16 -64 -440 -16 48 -56 -104 -48 72
-48 -8 -8 -16 -16 -16 -40 -8 -8 -144 -8 -160 -8 -8 -224 -152
-8 -16 -16 -8 -8 -8 -8 -24 -8 -8 -8 -40 -16 -32 -24 -24 40 -16 -24 8 -32 -88 -16 -16 -40 -40 -160 40
-80 -16 -96 -16 -16 -16 -8 -32 -16 -16 24 -64 -16 -144 -32 224 -24 -16
40 -8 -8 -8 -8 -56 -8 -24 -312 -384 -40 8
-32 -40 -8 -24 -32 -8 -16 -8 80 -64 32 -272 8 -48 96 -56 40
-32 -16 -32 -8 -16 -216 -296 296 -16
-872 -40 -8 48
336 -32 -512 88
-16 -32 -8 -8 -8 -16 -8 -24 -24 -32 -56 48 -288 -112 -32 16 -104 -24
-8 -8 8 -8 -8 -32 -192 -8 -8 -8 -104 -24 -8 464
336 -24 216 -40 -120 -8 72 -72 40
-744 240
-792 -160 -24
40 -8 -8 32 -16 -8 -112 -8 -8 -456 40 -152 8
-16 -16 448 -16 56 -64 -168 -152
-24 -16 -8 -8 -40 -16 -8 -16 -24 -8 -8 -8 -16 -8 -8 -8 8 -8 -16 -8 -72 -8 -32 -32 -88 8 -56 -160 48
-72 712 -72 112
-8 224 -64 8 -8 8 -160 280 -16 -144
-632 352
-320 -24 16 -280 8 -56 240
-32 -40 -48 -8 240 -8 48 -392 112
-8 40 -760 -112 40
-24 -32 8 -8 -8 -8 -96 -8 -8 -16 -48 -208 424
-752 -32 -8 -8 -8 -32 48 -8 32
160 -16 -40 -8 -104 -8 -8 40 -8 -16 -216 168 -80 16
8 -648 -280 32
-648 -48 -152 -8 24 -56 8
992
992
-16 -8 -8 -8 -32 -16 16 -8 -48 -24 328 -328 56
-16 -8 -16 568 -224 120
-232 8 -136 -8 -160 -24 -40 -48 -160 104
-8 -8 -8 -16 -8 -8 8 -8 -16 -8 -8 -8 -24 -16 -16 -16 -8 -8 -32 -8 -16 -16 -8 -8 -16 -16 -8 8 -16 -8 -8 -8 -16 -8 -16 -24 -24 -16 -16 -24 -8 -8 -32 -24 -24 16
-16 232 -96 624
-8 -40 -16 -24 -8 -8 -8 -8 -8 -16 -16 -16 -8 56 -168 24 -8 -16 32 -272 -8 -32 16
-8 -72 -8 -64 -32 -16 -40 -8 -8 -16 -32 -128 -192 -128 -112 -8
-8 -16 -24 -24 -16 -16 -8 -16 -32 16 -288 192 -24 -32 16 -112 -24
-16 -8 -8 -8 -16 -16 -8 -8 8 -8 -8 -8 -8 -8 -16 -24 -8 8 -80 -552 8
32 -32 24 -24 624 -176 32
-96 -640 -16 -16 -48 -8 -80 -32
-904 80
-8 -8 -8 -8 -8 -8 -16 -16 -56 -16 -8 -8 -16 -32 -40 -16 72 -40 48 -352 48
-32 -24 -48 -40 16 -8 -32 -216 -152 328 -16
-488 -192 216 -40 -24
-16 -16 8 -168 -56 -96 24 -368 -128 40
-32 8 -24 48 -56 56 -120 592
-704 280
-8 24 -16 920
-8 -16 -16 80 -8 -8 -120 64 -8 32 -64 -32 -96 -144 184
-8 -8 16 -8 32 -48 -80 8 -8 -8 72 -40 -32 -136 -48 48 -80 176
-256 464 -256
-80 8 -8 -112 128 -32 -328 128 -64 32
-336 -384 256
-648 -304 24
-16 -40 -520 -8 -24 -192 16 -16 32 -16 16 -8
-32 -168 -16 8 -488 -8 -48 -8 -48 -16 56 -8
