-104 -144 -80 -8 624
-16 968
-64 -96 816
-24 -88 -8 848
-40 -8 -8 -48 -32 -112 -16 672
-120 -96 -64 -128 552
-104 -128 744
-24 -72 880
-32 -80 -128 -56 -56 -56 -80 448
-120 -40 816
-16 968
-152 -136 -64 -152 -72 -16 352
-8 -104 -88 -56 -64 -152 -40 -120 -56 232
-16 -40 -72 32 -160 -144 480
-24 -88 128 -128 -152 432
-112 -128 736
-144 -96 -48 -136 536
-160 -152 -88 -64 -48 -144 -24 256
-112 -56 -88 -160 -48 488
-48 -120 40 -40 -8 -160 -56 -64 -152 232
-24 -136 816
-8 -104 -56 -88 -152 544
-72 -32 -24 -152 -152 8 -96 -152 -48 184
-48 -72 24 -120 -120 568
