456 -64 -8 -32 -104 -208 -72
512 -216 -248
768 -168 -24 8
-8 976
992
232 -216 -152 -224 136
992
-224 -88 -96 -216 -208 -120
-8 224 -24 712
664 -88 -120 96
-40 -56 -208 -200 -112 -16 -232 72
632 -232 112
-8 -208 -8 -48 -120 -208 -152 184
-88 -240 -56 -48 -192 -136 -16 160
368 -56 -104 -160 -16 -136 104
-144 416 -120 -200 -80
-64 -56 -72 -144 -208 -64 -32 -232 56
-168 -80 -48 -200 -24 -16 -8 392
-88 -152 -208 520
-176 -232 -80 -32 -56 376
-16 -200 -48 -224 472
-56 264 -104 -136 -176 216
-200 -32 -96 -128 -64 -16 -152 -216 24
992
-32 -240 -80 -56 -184 360
-136 8 -152 -168 64 -152 -88 -24 136
-208 -40 -80 -224 -152 -104 136
-40 944
312 -24 -152 -192 280
-128 -144 704
-992
